…
```
## # A tibble: 12,000 × 22
## # Groups:   Indiv_ID [1,000]
##    germination.logit establishment.logit y1surv.logit alpha  beta     k delta
##                <dbl>               <dbl>        <dbl> <dbl> <dbl> <dbl> <dbl>
##  1            -0.779               0.373       -0.205  20.9  3.42    NA    NA
##  2            -0.779               0.373       -0.205  20.9  3.42    NA    NA
##  3            -0.779               0.373       -0.205  20.9  3.42    NA    NA
##  4            -0.779               0.373       -0.205  20.9  3.42    NA    NA
##  5            -0.779               0.373       -0.205  20.9  3.42    NA    NA
##  6            -0.779               0.373       -0.205  20.9  3.42    NA    NA
##  7            -0.779               0.373       -0.205  20.9  3.42    NA    NA
##  8            -0.779               0.373       -0.205  20.9  3.42    NA    NA
##  9            -0.779               0.373       -0.205  20.9  3.42    NA    NA
## 10            -0.779               0.373       -0.205  20.9  3.42    NA    NA
## # ℹ 11,990 more rows
## # ℹ 15 more variables: flowering.logit <dbl>, fruitPerPlant <dbl>,
## #   germination.prob <dbl>, establishment.prob <dbl>, y1surv.prob <dbl>,
## #   flowering.prob <dbl>, germinated <int>, established <int>, y1surv <int>,
## #   flowered <int>, Indiv_ID <int>, week <int>, week_next <int>,
## #   elapsed_days <int>, size <dbl>
```
…
# Join genotype scores with phenotypic data
pheno_weekly_merged <- pheno_weekly %>%
    left_join(genotype_scores, by = "Indiv_ID", suffix = c("_pheno", "_geno"))

pheno_weekly_merged |>
select(Indiv_ID, week, size, week_next, germination.logit_geno, germination.logit_pheno)
```

```
## # A tibble: 12,000 × 6
## # Groups:   Indiv_ID [1,000]
##    Indiv_ID  week  size week_next germination.logit_geno germination.logit_pheno
##       <int> <int> <dbl>     <int>                  <dbl>                   <dbl>
##  1        1     1  3.42         2                 -0.707                  -0.779
##  2        1     2 NA            3                 -0.707                  -0.779
##  3        1     3 NA            4                 -0.707                  -0.779
##  4        1     4 NA            5                 -0.707                  -0.779
##  5        1     5 NA            6                 -0.707                  -0.779
##  6        1     6 NA            7                 -0.707                  -0.779
##  7        1     7 NA            8                 -0.707                  -0.779
##  8        1     8 NA            9                 -0.707                  -0.779
##  9        1     9 NA           10                 -0.707                  -0.779
## 10        1    10 NA           11                 -0.707                  -0.779
## # ℹ 11,990 more rows
```
